0.13227176950087727,-0.9260898585275474
0.9619136737573164,0.11362414214595873
0.43124303758606364,0.24827741766917422
0.46915432779274857,-0.5619067961659832
0.7145532952370295,-0.9971898517116304
0.7818525608208386,-0.13689575196861892
0.8974489269225052,-0.253316612358943
0.2492015915180017,-0.5211497066600799
0.22064162124341813,0.5043209820846157
-0.6443455298121881,-0.7570546277589989
-0.028009208942098462,-0.579321780511687
-0.29583756973186426,0.7080534951864852
0.6765442193253521,-0.7944951736877037
0.5733426400153812,-0.5087025971640833
0.8277560199561276,-0.0882605921351125
-0.7958244104974606,-0.8985245307798331
-0.41498273922408346,0.2601948713235003
-0.8005842333738913,-0.36018450359404963
0.6346064310623272,-0.920154108380026
0.13932722206095005,-0.1708270284242277
-0.4574465458747441,-0.04132304333398262
0.3062649827524373,-0.3326535131581956
0.9136102597042104,-0.8049026919672226
-0.1756539311634564,-0.5985744813387928
0.9911945680559904,-0.2126882556209222
0.534489545397393,-0.09742115220462577
-0.6957488701457157,-0.022651080235446708
-0.4328249803566788,-0.22064186171412814
-0.3225143518304048,0.1342494972324355
0.883180856631153,-0.30129694359598913
0.5287349761013156,-0.4834220172409167
0.02785628601947221,-0.15502334186133426
-0.3429805439124656,0.06736169246476864
-0.43994550003663924,-0.9149497563263975
-0.17104266441285731,-0.7856336412213778
-0.424310518408636,-0.46142330826019373
0.4834940287069758,0.9651646323935152
-0.35544524076254147,0.6644067236141897
0.15561093043727192,-0.09722792872855246
0.6127841328651673,0.7599295880690802
-0.6184385671852142,0.6266061391253162
-0.4208144418482589,-0.7584386773258736
0.8951632392655358,0.6890848032890227
-0.9039673076005406,-0.7344238961754994
-0.20187559617579787,0.6723479115743738
0.3822111110119495,0.8926420201456429
-0.9409628291257393,-0.7982580513064368
0.5215442857170365,0.9727160801385828
0.10379210765947278,0.6263452891592449
0.7624195399954439,-0.11483077664643515
0.5679624888895936,-0.13020577195160854
0.5366106532161135,-0.921289551902988
0.14397107377978213,-0.18592909296487825
0.9274221700410032,-0.32308101625912733
0.6200596532495151,0.6996790842901388
-0.39572267202355715,-0.6540441560678139
-0.6603300454311172,0.9605351541200378
-0.8141892180630419,0.528346342411578
0.9997819377037183,-0.056041348600749386
0.3185489340771812,0.7867441414940848
-0.1611888864299369,-0.8925278706473658
0.6380894045439605,0.3683911219626925
-0.20916552408413724,-0.4334426126399762
-0.2633423915422004,0.36959627154025676
-0.2760163544063601,0.4980975341279692
0.3918201724291126,-0.05294108852097734
0.6674189803032082,-0.6588609301474182
-0.25554144364528786,-0.6241896836136449
0.9844884063268793,0.10247929336695494
-0.8431419698225306,0.6609755482773527
0.14253003350129956,-0.477915439836466
0.49636958916571206,-0.41368560698956225
-0.8058744452428832,-0.8895804070434292
-0.9920607384236984,-0.42954817065128936
0.35476009761922134,0.6422875102039107
-0.6489211928400733,0.8461773355325248
-0.39575431423364416,0.33552936757169816
-0.24664807930031585,0.20375107253852232
-0.21756189945708426,-0.26717321775014136
-0.1143128859941398,0.5147544607176671
-0.26505283160572435,0.24433176536869472
0.27780949975235125,-0.6844399833279042
-0.9602361678524864,0.7577675688854293
-0.5526059771722791,0.15155714072840643
0.5220771002608751,0.8934481500033045
-0.4769035275496414,-0.6969008741695701
-0.9121330855175311,-0.1516879386851142
-0.7202208601362594,-0.36360794271433616
0.9223830625597345,-0.3658488380061873
0.42827132326972017,0.06211548313827309
0.6896748286547538,0.7358813872987566
0.07071604362662165,0.1842523321794518
0.5019924980064105,-0.38115728625513734
-0.7154858880876767,-0.01057197822957967
0.4975021361909908,0.4392574639792226
-0.3773356743280445,-0.36243386818780543
0.04475880885786432,-0.8176146572973795
0.7839925097313221,0.6715101715144456
0.5524618629871045,-0.8301480124938949
-0.2162105054503365,-0.3646084344116449
-0.35447470341754395,0.5910648827141132
0.23262144243656602,-0.3155850318777773
-0.5047552498680241,-0.5903187217116537
-0.24246544454074015,-0.13234613417970809
0.5362810771463027,0.33376877345976097
0.9293066917005086,-0.703231802878703
0.7356063409374245,0.2617974315389413
0.7378073523809183,0.4860373167061538
0.4071697556322178,0.3257233567243163
-0.6472497376992725,-0.3881415758951243
0.22301263310710695,-0.26559474584875176
0.3470418572159535,-0.38797628419392227
-0.5097443662142864,0.24237579233178974
-0.8442025502654495,0.5298323528172086
0.38447025822303593,0.6020578241612913
0.13486716850799763,-0.9910038695077599
0.9895701589659227,-0.828045717193606
0.21918663702226837,-0.04444489171381116
-0.04885201374316228,-0.9393986689042899
0.5046061943847604,0.7608129426147865
-0.8854754052303893,-0.2691767553288267
-0.40430682147122843,-0.3554575279164942
-0.702380861099559,-0.6029892695859598
-0.5379216512415388,-0.8419431357783542
-0.5292343361857614,-0.17623000912445286
0.34914983839320435,-0.09550112677165323
-0.6093788794412012,-0.16531656326106847
0.9352657786207765,-0.7652183034950453
-0.800014991746927,0.8193761351238593
-0.7851012915951634,-0.011622264791752324
-0.8502810181361276,0.1232988590938453
-0.7324194106406532,-0.419952770055402
0.9744541770841615,-0.9452235881101032
0.8110379318520584,-0.9147416999326528
-0.9696519612452512,-0.7751251418201606
0.44885788820371353,0.28786419799078566
-0.7412939132370502,0.9845133665101151
-0.41910860669964145,-0.533553778656302
-0.047941092558011045,-0.020109106539822674
-0.6896205577615833,-0.5536630469297383
0.03473802473397569,-0.8194704379169815
-0.14540929201816577,0.5007070747211315
-0.7988909805806661,0.357952064498843
0.7483913544387208,0.3568035300472283
0.49247297286439595,-0.45918316201780285
-0.5904704525225242,0.9232257757668836
0.09903962429898039,-0.8196481451035971
-0.8220778757728795,-0.5974101081881249
-0.5942116814533358,0.26722660727122727
-0.6716770276143575,-0.4727260175799497
0.9868494977947739,0.8866762099301322
-0.5532328872998147,-0.49726534356551455
-0.43162639594503793,-0.13324355867005755
-0.07426007453857286,-0.5416023262218883
-0.43438384271103647,-0.39435643414461974
0.9766394534177458,0.862321547835416
-0.655707207588442,0.4668557055688145
0.32312119234752745,0.7348672062043942
-0.4638706921823341,0.007122518095249442
-0.1688184347715358,0.9629372205268061
0.5459707408628296,0.5012916267168006
-0.11937853004601306,0.7172037080187519
-0.03138298485243829,0.6880652115649526
-0.9096732203050253,-0.10248477733617967
0.7936450170187126,-0.18655142008291437
0.42230358104998866,0.013108978464805965
-0.48901605619375355,0.0794050092498495
0.7487875833976236,-0.6040345414837518
0.8642527961085484,0.8005585194730716
-0.5007129496326366,0.8378747560103226
-0.44862771611528096,-0.6678106547203964
-0.918910181524806,-0.9471535182616497
-0.6169344680273499,0.8683760743138831
0.2574117883781255,0.07953646189925312
-0.661777469764991,-0.5469587348148932
-0.48958006618534733,0.005102665781341553
-0.07019548939507003,-0.7172239947351715
-0.8589377091124157,-0.9030501236464186
0.6788496537009838,-0.5137189288127704
-0.08421183035055191,0.8892620193024567
-0.8386684917418679,0.9554924734003307
-0.2739063736664773,0.07197041095433088
0.17798602361660798,-0.8810228880605582
-0.8499666994515349,0.8162781778771233
-0.19478925360489763,0.5402911247817617
0.17356144497281112,0.22301256701101058
0.9101281959487848,-0.8057933324939957
0.5559970576637874,-0.292261646945152
0.9652645267486775,0.34292495023199465
0.14102461315527526,-0.15015545780651696
0.8786471281520811,-0.4663501672993915
-0.19377481870321311,-0.8559160236111087
0.8007529171932497,0.025310352475341746
-0.04755438893266639,0.06529426800746863
0.1375227509609751,-0.4046816649771967
-0.42297267911353886,-0.8852672379923585
-0.9603580948005364,0.7972107803073809
0.6778663328433165,0.5807959687874684
-0.07267745489425614,-0.4698907644471948
0.537364492532119,0.1885116623499976
0.26934719737524415,-0.8474063966468521
0.17481980970679523,0.3651978508282765
-0.220533306531419,0.7431917357225426
-0.41105235275923224,-0.11901687131276595
0.06457428776738317,0.51762079786284
0.8678067361177104,-0.740251065509939
-0.5815012745869095,0.39565870808784487
-0.01829774390841954,0.32873651954128524
0.0490307801203127,0.3075023589196375
-0.5894928170387626,-0.29266975336459744
0.2317123145164237,-0.606279337905
0.6946323160416545,-0.22353146570254734
0.569640305999273,-0.7392379472498158
0.49615704788061454,-0.586158582965159
0.17741107898483732,-0.4239883177993973
0.3509317417379141,-0.2785550156633543
-0.21118042100644296,0.4032137656896073
-0.7250205902921407,0.26730271459882493
0.010244456280422254,-0.9114390290496255
-0.27732883293964483,-0.03314198431024118
0.4774800927751599,0.4067793449330077
0.5033398726541394,-0.378549224959406
0.12310253065523735,0.12624995286619423
0.6575301506350006,-0.7430239823662936
-0.21247531264064,0.8807044933794568
-0.03201073727020787,-0.027690987559856328
-0.34750598568078406,-0.028771498391567008
-0.637981103616371,-0.5313537687300511
-0.020066533962864952,0.7466287591875325
-0.40558679965488476,-0.37598942901993904
-0.6306799219259027,0.20327340495559332
0.39701960754875354,-0.2945278029785767
0.9576595362261842,-0.33686133615297953
-0.417877204918764,0.9541922362718482
0.5061150912046859,-0.7236550292566635
-0.15493293001152786,-0.15457660121786176
0.6810626839597518,-0.8135953270355467
0.4331573029099387,0.7087115074544454
-0.8170681687891084,0.8158926877936361
0.604156740133704,-0.24983129442540797
-0.5072308684833111,-0.6353409138707589
-0.7273085002565187,0.9515237443829072
-0.7308168204242032,0.1415196152784588
0.22912897035431867,0.20713497606695164
0.8656599110331722,-0.40779059158506104
-0.032654001662997034,-0.8762657371888183
-0.7500068999067901,0.3021657490442322
-0.5309298033314698,-0.7415393552198464
-0.3547010969850335,-0.2416931984656081
-0.8810001002919821,-0.06831254470037829
-0.6409641166927829,-0.7129104714471433
0.4196643054565463,-0.8352030979075571
-0.37582723324836476,-0.7628798933625798
-0.6729489528119845,-0.29279950873659577
-0.5924437682517762,-0.7653191787658555
-0.7242443423039779,-0.5140082145402665
0.02960460698466516,-0.5911298351375378
0.7212599748610986,-0.1375062672148435
0.5118111903617515,-0.6400979400489775
0.7867219426902048,0.039758750469308435
-0.16547071295307525,-0.6348574629783155
-0.44329066407474715,0.1911809241386968
0.6934122532323312,-0.2970639953031686
-0.5388566142530073,-0.5969899856433947
0.637970938019504,0.3070133426224759
0.7054100658188367,0.2595709566398694
-0.1731946806146647,-0.19649707708047948
0.2957151572892358,0.1770592215441864
0.5163319642039361,0.19279436678860962
0.6329526176928142,0.6395873099329861
-0.26705948309332816,-0.3663908028230023
0.6152562671259221,0.9561460972330553
0.8361009318142121,-0.861198615855505
0.5817281621831483,-0.34554482410258225
-0.07448068874569125,-0.5884418310064261
-0.49693398064787075,-0.010313888212256206
0.36470873771084444,-0.11833138133126653
0.4622907356864716,-0.6157154351021552
-0.4508786777227378,0.9512656022913375
-0.45350773815434553,-0.1608709340224499
0.8155512276501475,0.9989593019931817
0.9596130786102626,0.9129894295555021
-0.5345375309498113,-0.6906852168683852
-0.03907563606364528,-0.20940524898225665
0.9044818706017681,-0.2941620665360376
0.9350046363405178,-0.7786213779288285
0.8271311177197189,0.7383632148437214
-0.22638953244069038,-0.5565944942888195
0.48258853887699327,-0.9655172208478364
-0.42491104913345445,0.6787763379217453
0.9124902878534131,0.07121700650569851
-0.2889773574322356,0.7997637075841357
0.1563875141221278,0.2065203502031936
0.34571076631230047,-0.06820904828782415
-0.026871581083703466,0.8249211419629721
0.27254544165154737,0.6409028153831655
-0.44740782120254785,-0.6718262639022166
0.6179205962887115,0.1667362604329743
0.8369283564922745,0.464724327446306
0.5161034792022756,0.07517636328720245
0.03763649568798666,0.26893912714409973
-0.8836740036810671,0.9844031549377472
-0.28274876337735044,-0.533941804390887
-0.8590831339454374,0.5668914238517329
0.8381163603415118,-0.7113477899561418
0.16844230615145817,0.1264533276774915
0.8543992544620453,-0.08473567510962932
0.5556105935598725,0.7877904327272371
0.43108377426520605,-0.5839969356926429
0.8458929190490536,0.7085130322915438
-0.8690535489497451,-0.9425535584811049
0.8975648439130317,0.8028672320681911
-0.7403912118640308,-0.15559800495524878
-0.2521431937004457,-0.6488272772960342
0.718636686246106,0.1858073090107657
0.11729546304809668,-0.4939640997839314
0.3494690253217323,-0.3822879537563433
0.4899301141391561,0.7016207425448129
0.17684552663741182,0.1397431226462298
-0.8753554378967996,-0.6483844368465921
0.4275227264194066,-0.8192375880292482
0.4729394010250032,-0.13898010950928286
0.1960897144307232,-0.13363646846916222
0.5430750882405035,0.6406971730519206
-0.2610434765734049,0.4135593608255055
-0.7200559885768931,-0.21229845396871871
0.8744356800635216,0.0584081866676569
0.7413067547531083,0.004843852435471252
-0.5232990775796926,0.1242496498590775
-0.18536883873948273,-0.3452366780213423
0.3194763554373481,0.17055991575980944
0.847965400256733,0.697012035064176
0.17230297139914863,-0.786271808112242
0.476681221174603,0.7714753474650071
-0.200167468958951,-0.31923781437534715
-0.34411935252320913,0.7557461571594681
-0.9060334688106306,-0.24315989675588656
0.06794012014794881,0.26923442518393825
-0.32715372455972,-0.4269720984256955
0.24706974487003963,0.7183671411795489
-0.6359955617715056,0.34097331072556125
-0.0455333514270031,-0.6231473667494358
-0.5169055184748057,-0.5492652593689655
-0.9230994206220913,0.2926346160319726
-0.8504682696263175,-0.41252485148264917
-0.13525594452270528,-0.6735110854970552
-0.7259564287888824,0.6294580250049917
0.24207966929405744,0.4994889267348763
0.1563355231748973,0.020292062487547557
-0.2184725216363692,0.081536722775011
-0.0338014857139286,0.8401152756034291
-0.3851443463491857,0.7049625651744016
-0.6763177327530367,0.9774538980450489
-0.9272022265260873,-0.7571413165960887
0.48996695035618587,-0.5974102889283084
0.7959293665799758,0.3240652678052376
0.9263891330848615,0.10963042199205963
-0.331115151048726,0.40142939479937967
-0.15727044103158794,-0.3917088696840678
0.6099330786438129,-0.32697458785198785
-0.4341592266405252,0.5056042670512153
-0.42023039913315374,-0.7613286265434758
-0.19333430424076115,0.2737045742686399
0.476050410491085,-0.23664132867422727
-0.07040388486907423,-0.8253860303124885
0.4878752398294839,0.7745062261954492
-0.8601142264393276,0.5409937253931962
0.7145797532554754,-0.7507986225376668
0.1333313481501086,0.6860768547566571
0.9617260460431161,0.16574704563379083
-0.5243356579754008,-0.9624380176416469
0.9171638560628046,0.37493580449645525
-0.6388292078834896,-0.10820773489606439
-0.4635363035568718,0.859954287656421
0.7485110558821031,0.4230309343174037
0.08166333023586003,-0.3453817413891733
-0.020620602205482452,0.7061490273870146
-0.20001310359437108,0.9623430813557119
0.801231780603799,-0.27991996809683317
-0.015114045816960076,-0.35410018504526186
-0.3307727015154689,0.34854563166598806
0.46549700429338503,0.6875906266432752
-0.9401898454061473,0.7551903097375261
0.1479228339280214,-0.947567533694468
0.3503733627031145,-0.9145147161367309
-0.9641802317050556,-0.6731270102321179
-0.7171022308736266,0.43569807926356496
0.22681891856516923,0.9888365369014434
-0.6046284467445466,0.29217030748326267
0.1712161719722345,0.10897875059533058
0.9604573796258649,-0.269254182153424
0.151511730304265,0.11909213917083927
-0.8247359311936118,-0.7921239088723473
0.2911506404079023,-0.6165751153435366
0.42394349217626526,-0.03350826880720659
-0.31014987016993656,-0.8314935511452994
-0.479630405431986,-0.7280675589050212
-0.27997588326161416,-0.10917134587307298
-0.43809123634749425,0.2430613590458981
-0.43099805898170285,0.6167448177941517
0.31904518344987043,0.9123753949300777
-0.58324702246985,-0.021442000601842315
0.02347610691859936,-0.02286487466867193
-0.42423992865951843,0.786601782256408
-0.6898899071653197,0.4337712959951727
-0.46592221764555064,-0.045578046036877096
-0.48640002384476166,-0.9942987813001252
0.0466391976734708,-0.6057771215808145
0.29362073206337236,-0.14773995459354405
-0.7100305611522173,0.6657167009590317
-0.3090682606361881,-0.4534225838784087
0.3767576141890212,-0.783487122364338
0.7352141965830605,0.1777517774447499
-0.1800647158890758,0.42412564375118733
0.9309796724807331,0.31591383524709116
-0.21963961740462157,0.06081447784773486
0.4477583312317359,0.4356821345637001
-0.7900040889234645,-0.06359504832421425
-0.2366700493335041,-0.9806581214141272
0.42884591635130676,-0.28660831946706034
0.9394265363568453,-0.949464886735687
-0.7846434068494827,-0.2870052425527889
-0.5653183373743287,0.12800511086493338
0.20216256514917763,-0.5501204991722535
0.0718916946551269,0.5394939782418167
-0.5228879172554906,-0.2713991072229114
-0.5335447515690697,0.9184847523436459
0.6391646476001411,0.021241028755824898
0.015249973447441612,0.28080706908977526
0.19978550986467458,0.28715974961354895
0.9864730235710948,0.06042656451015316
0.5149303349200247,-0.6365554760130268
-0.35843788593905646,0.7308261688380044
-0.6928933076948103,-0.7947777223044046
0.5328371917989454,-0.3279680673061405
-0.218022057959655,-0.11963152691946677
0.042968950784355586,-0.11134319275156845
0.5361383091229692,0.6104503290994125
0.7329859663728717,0.5253777205969363
-0.22027710932304578,-0.9648806251738791
-0.050799712995123425,-0.8928980293138065
0.15611975943847467,0.7396431118402975
-0.5138038907962006,-0.8170011064656029
-0.021350672466332155,-0.7724660455604904
0.06576055927415236,0.7513206810560042
-0.37202652883193155,0.27064484427910473
-0.5196023712758482,0.6233172718211804
0.627413434139281,0.49186498286230895
0.7812739761742391,-0.46313753064508023
0.29782795076937907,0.5892633529260582
-0.4241182908326466,0.637780908405637
0.5458053568215955,0.926912583948275
0.20815081654087964,0.42942944057937393
-0.09728822673343518,0.7562031832009044
0.11952605593716004,0.29739277538581876
-0.795308644809904,0.7189849858658213
0.6476939783215063,-0.34690801681421934
0.7222245038580803,-0.8051386019857263
0.40767394267423596,-0.9946877219432633
0.47840247298430616,0.5196884187735717
-0.9298904961393382,0.025278140465296195
-0.9719180754103591,0.5748408816788835
-0.4210234840902267,-0.005461004066419584
-0.9719275568479719,-0.5825875155925906
0.4506539508610967,-0.3787455415059384
-0.9913879655736386,-0.9232824326501292
-0.6765803676091682,0.36855723222778747
-0.44575263133356047,-0.4816432554494996
-0.1753231470148804,-0.4185442565086259
0.481961861298845,0.012313914278309968
0.6947012707305009,0.7575159942302443
0.904287781556566,-0.1913813676366074
0.02143208597054347,-0.2872132628830968
-0.1470671962257737,-0.2858854987677377
-0.49234142565948646,-0.38897497424400607
-0.12349875871284022,0.9452797619071918
0.6779557763532462,0.5422094263697999
0.411575092808695,-0.8485151454297828
0.30156826366685907,-0.5997823413254308
-0.6663506859306163,0.4993131627218659
-0.8586140714177868,0.8822859154992475
-0.7422407020577344,0.6624624416711418
0.39662085647856715,0.5998530940618652
0.4288197707688848,-0.9453588923579428
-0.8429015875096957,-0.6688464597485126
-0.8238854509237736,-0.3997796984106179
0.027729752541807873,-0.23519028532510355
-0.8347856140367023,0.20778771722229283
-0.002266370498767545,0.1739308291094781
-0.11294412925571384,0.3753217044918131
-0.5970036193637711,-0.3881743332687113
-0.7127996858112433,0.8797269710869058
0.6036648816210843,-0.7076531429896171
0.3547263385993691,-0.8518721634306594
0.5688076069079084,-0.44695342955074824
-0.3094408089758325,-0.20047615844613498
0.1442380720620553,-0.5514332921297773
0.6275015171881366,0.8335855932274816
-0.4491859805402718,0.9092102003658429
0.3839665861185664,0.5205763593865562
0.45339173752270234,0.9239537733948073
0.45375030255180815,-0.25668778526903435
-0.13089353059342246,-0.4018376382864213
0.35289506890255984,-0.10105892573083697
0.9023010787089984,-0.9689989286033756
-0.6520973406798225,-0.5205618816642783
-0.26374832707103346,-0.342012878460195
-0.02459071872526475,-0.38673859234178254
0.40722975012172613,-0.846743087571838
-0.3844775239055993,-0.3955345661056855
-0.6530584926030623,-0.40876169417950403
-0.978658005429345,0.3926130305360249
0.17189441503145964,-0.05322758522634485
0.026250396351002347,0.1993159099132511
-0.9674682906285565,-0.8609908470972869
0.15281240354571368,0.3458279490555012
0.25207010705545385,0.8973820940067245
0.4421432275585626,-0.6564781357917766
0.4254167732337062,-0.004256032937564935
-0.5672752170712712,-0.33741810306384523
-0.5716510093909115,0.1727484517310136
0.30680127787448064,0.40931045107446384
-0.24955224464945736,-0.3550195735184418
0.3113480380835063,0.8892295535651156
0.2864182482669164,0.5413077799874417
-0.6207320683683981,0.8577800216958278
-0.44082514486574675,0.7499866129627624
-0.20718207153440305,0.5144046783792136
0.966259149988576,-0.6375167391577148
-0.41929609278300317,0.20602934386286775
-0.7113732052726345,0.01895285253542056
0.3159247680530497,-0.02748632924953487
0.376698040228574,-0.4565494011490079
-0.37124060346224175,-0.2961046852226632
0.7752208462664956,0.8544285072181048
-0.4619766058839496,-0.6818220111519644
-0.7455346638023501,0.2602380839583125
0.9884884179528224,-0.5258660933663357
-0.8179829889645183,-0.48780180538464846
0.11549710620370135,-0.048983344054499556
0.1347203619038566,-0.18068439823320115
-0.7276302008516913,0.9584602150491961
0.17728562340218113,-0.5526020207415279
0.29185740916411906,-0.4710777944622546
0.11584325613832824,-0.02193898305176112
0.9197114957326553,0.943283805665337
0.7916914978035259,-0.2606088115897405
-0.6425029652460279,0.15777362904308712
-0.0828596195330431,-0.08733006380153507
-0.37628204191806525,-0.6521645200863668
-0.45418999823935957,0.3751783575343657
-0.6885610574715846,0.09053693815545616
0.8363926343528947,-0.8346997703857544
-0.6211177209700061,-0.9541810806038271
0.5099681847556661,-0.5355375720173565
0.8346067586482337,-0.6030565139975781
0.1807713488625724,0.07037040133600025
-0.4842104279022377,0.8425238710349889
0.9645864150076744,-0.5077803218809003
0.010201603450356256,-0.9111969945379219
-0.9002147618720504,0.6094147182404785
-0.483937710826305,0.928393923800394
0.48235473459548905,-0.9059450104807047
0.1500885702504433,0.621270048091414
0.0600066071680978,-0.543216947213466
0.6244762376623478,0.4224047907097368
-0.9130768472541502,-0.4406409225265764
-0.1515775342927037,-0.6428635293300844
0.7856439627554683,0.5049187948867857
0.37441460576758256,-0.18702633242399624
-0.6147704808478551,0.24231085925908102
0.45308618698821124,0.8638123990834494
0.7376919188666407,-0.14995244404738717
0.4882677864125624,0.5960046569161044
0.3652498584319306,0.33157170609480646
0.18180319885604046,-0.8086256768356976
0.4431650015659263,0.41634340918124835
-0.21875881471668235,0.9850978693331998
0.4868168821382408,-0.07499729712014758
0.3816482993327903,0.8416450920457628
0.05541127505791077,0.9147570169888841
-0.1835703881381543,-0.23971390653098146
-0.7311269971022316,-0.9250185646636093
0.8930906884903893,0.30969707754357456
-0.4941424405510715,0.5884987568669895
-0.2654015135752934,0.9977555348916762
-0.767178576992668,-0.03985841876432783
0.9544936219635609,-0.006640310384967263
0.7689485377580361,-0.5438512759258283
-0.20395190067743085,0.9646823355170713
0.48135436537928933,0.18738267643454765
-0.5040238219559419,0.3551562471938359
-0.22286462641889848,-0.9233125429053701
-0.41135526097829334,-0.5252127625733944
-0.5106669977876808,0.2961793791475189
-0.9697195694614547,0.13658187215691697
-0.005728503623815051,0.8173507712227204
-0.35366161517695516,0.9584012663887413
-0.5989973793821555,-0.34505149933398815
-0.35303563189820486,-0.9106734859512544
0.8014110403998129,0.19047724120823806
-0.12901414477649586,0.7467831472626525
-0.518725546977189,-0.28186171659294357
-0.5770059280423347,0.5021968546207516
0.4944970742497632,0.2873929455201021
-0.871538295061729,-0.39472173024883217
-0.10464795680923933,-0.13558729867340014
-0.14275196090378928,-0.6926785796283368
0.11420845239904098,0.7329559732650592
-0.026204359984162373,-0.22773402715673852
0.03636809589200629,0.690016669622332
0.10339425370677424,-0.30128650658812295
-0.7420103416914094,-0.7348991132479945
0.3751704334236736,-0.7696687701005884
-0.5514052798608937,-0.6406181913069484
-0.21024662685450224,-0.06512989231473099
-0.21496444113990565,0.8887479843681649
-0.578640894912567,-0.44205754219603843
-0.9893269896890422,-0.34496853160502017
-0.6786607130047326,-0.9821821929800634
0.7677638160929778,-0.1489255537892693
0.16974128699790492,-0.19012400375552563
0.47543669220672236,0.1342949638271036
-0.013223117768087489,-0.6111521363659345
-0.912416958173085,-0.06088516254859799
-0.1786950232339679,-0.13904665371642433
0.6153622265503988,-0.2005298006270615
0.10249246366265474,-0.8716928359711453
0.019764482772306247,0.7570905418440574
0.905166100344234,0.49085804678338074
-0.28129151765521065,-0.15314228114827322
0.049444955028524085,0.8521541043508067
-0.06604066807566489,-0.5483829566455309
0.7419520145153757,0.9930809808307879
0.6906022021897422,0.9312067736643779
0.7364377213411606,-0.08849550960789054
0.15496404269564934,0.7117922831198349
-0.2413841812035029,-0.9154945601541595
-0.6038000658049321,0.09249970991737966
0.6760439115286185,0.9936408115233966
-0.39883474959780263,-0.6312331134599118
0.7222023485973168,0.27104308039680025
0.6505040409707965,0.5329367246190173
-0.06790730852816473,0.5657839573485663
-0.6664476015873688,0.836062485947064
0.5693036720549651,0.5575491297630479
0.7693625073524353,-0.5948247351129505
-0.9246417240538667,0.7085014190961818
0.199714354781805,-0.6398813820003824
0.47464591479417906,-0.4534690165704074
0.16659997444682273,-0.3129435147177275
0.7920074784610576,-0.7068843979576223
0.4456388456299607,0.7002940408192271
0.5600006212778263,-0.12426604578582534
-0.12780283783127055,-0.58089043618807
-0.5892984760776361,0.992337311708672
-0.3258582596775019,-0.3462149745666614
-0.5816701416763272,-0.4040530740549242
-0.16844823437489542,0.1935948475621292
0.8986142314209604,0.15447376456887452
0.5838567419691665,0.44659723745908075
-0.457208385373151,-0.26945620006983106
-0.3314139548301447,-0.8778998256691224
-0.22302313704621657,-0.4777095180908053
0.02750606638710429,0.47210647026695773
-0.5636784943305357,0.44157174247157305
-0.7923405527397975,-0.9096135059928803
0.21404760258689892,-0.16525718545338774
0.15431920120271814,0.785169741745817
-0.2637005138975539,0.4645797269690404
0.014478572123544975,-0.11847189531243218
-0.798380179558535,0.5089756823782328
0.9379771623302915,0.9175098383240832
0.7939899816377058,0.629038171291348
0.16648813917175964,0.7301229638716735
-0.9782756372222967,0.7620776338107058
0.3719961540936907,0.32727754173767654
0.01766313055724411,-0.11879052743139873
-0.7908123604351749,0.7690757688981369
-0.15246304807491828,0.0578888671544282
0.9927558854517506,-0.30081715303724943
0.3781694178459192,0.766900210993791
-0.1844003436152677,0.733266157105559
0.6852404622481603,-0.12687822363765888
0.3346781783909345,0.9434842479707057
0.49038447996026613,0.6331958956562191
-0.8251087537132495,0.31355472021504727
-0.11684967248462241,0.08683453275897524
-0.45476652794054906,0.6065964464883011
-0.85700972454242,-0.37529533955982
-0.8675570806095818,0.007447013532308144
-0.4997311514090097,-0.6861568936684361
-0.6205804776064303,-0.027739160716097278
0.36160203348401865,0.580287387802289
-0.20180462966489432,0.9875768608735882
0.04198913543870164,0.6927134124217906
-0.3984447176760102,-0.886352328762072
-0.8288301617812126,0.45520262956530644
0.18265948392018005,-0.42856733214258
0.29653681136025556,0.1766828750342755
-0.37697502162765884,-0.24244085278527017
-0.6387753254285076,0.22165525313988632
-0.44489517492418607,-0.7479848672791338
-0.09638660996748794,0.6987713858351363
-0.07031995675098046,-0.9643461421723358
0.8735105130405996,-0.8810232191774343
-0.22860478997356726,0.5929180278952744
-0.16201959207339578,0.9603217403602271
0.3095257599069121,0.8675219455897276
-0.13779435382923944,0.713720956240854
-0.5230001039111287,0.2583959252837693
0.4917101484356896,-0.14932111154649208
-0.3166958527611783,0.3374153110682332
-0.2943541574323605,0.10794684536267019
-0.561767992481587,-0.31304121271718244
0.732928992837012,0.4248844949420414
0.49836172229719056,-0.16654908997531437
-0.4062900205696498,0.9620910605841955
-0.3770394317151664,-0.9700033131767385
-0.9661979107453216,-0.9744771987685417
-0.3076480457576345,0.6096331711614438
0.40517411584864615,-0.6409962211586258
-0.9232504975861635,-0.7655215308522334
0.5604414378251681,-0.8903816901121839
0.6715353216156033,-0.6446647212730281
0.5542580814708902,-0.04183102534722649
0.268109430251416,-0.5387239166479154
0.7289604522841038,0.04772785484405628
-0.6754923343491086,0.902759218835768
-0.1684361955729412,0.7524577756789448
-0.7493329146126682,0.17101221753978968
0.017823276778425212,-0.982359234478456
-0.5355770353123366,0.02259885969306752
-0.3377832837118939,-0.8252528972405049
-0.21804498904798586,-0.1635515633997766
0.16499914864731036,-0.8875992362389982
0.746515497077348,-0.061959920373654276
0.5198946647993932,-0.03662410489574208
-0.15385062010368933,0.06807103931561498
-0.4672302803366659,0.9564061261218497
0.48162013380944124,0.016818752878813292
-0.11741061821561605,0.8561738574432749
-0.7668591459942253,-0.4928980540705141
-0.6880308306161824,0.43615879220571285
-0.7559837457127871,-0.692091212217399
-0.004244488441683014,-0.3805737028648457
-0.11261604855552876,0.8949515280686231
-0.655403218435433,-0.4979197153182704
-0.3393166677674253,-0.42273557838484144
-0.8235362033704186,-0.08430993650531149
0.022525995141184474,0.3223736916809725
0.6750961778083395,0.06373752544018596
-0.8696301355846672,-0.6645325703588321
0.4525689893518392,0.23913789244926598
0.7117131753857584,0.2827370320448259
0.8978526802938003,0.20723976902399266
0.963032990484207,0.028382967017450467
0.3245426280738788,0.6408428504205845
-0.7936018211536973,-0.8223658503770765
-0.9812131718197385,-0.21813557216783552
0.13925821234537694,-0.5648870920495113
-0.41627440103150715,-0.4424740647853185
0.7322124217206409,-0.8845374742323804
-0.2210385318332706,0.34935867377869534
-0.05182251133125604,0.03154172144410161
-0.033320040096016745,-0.5220817289727431
-0.2557406016615211,0.6685392241322254
0.6635165457785355,-0.3356375459540961
0.5459873637226718,-0.12913778319460922
0.7691352223245607,-0.2663219980274236
0.14638876885223406,0.7580112039965341
0.12429160299203867,0.9146034654205586
-0.7479099902179971,-0.18680956895963519
0.6584009710733509,0.6527483749158216
0.6003161309811018,0.55719768438933
0.16602991329797656,0.7281354519259464
0.4671775256049455,-0.880325496693378
-0.9934121712787305,-0.0953108740539097
-0.7144139600497332,0.23831311129148958
-0.3259754216160329,0.30127915862648535
-0.5071817021784502,0.7119446769420044
0.8867375079939215,-0.70211537845479
-0.8301833562828329,0.40968381523759856
-0.7272429071355915,0.6123546908916864
-0.42839259281332653,0.013765492131577073
-0.0622766569295512,-0.8389085126680029
-0.8984594085553612,0.8022511266386252
0.5385430993080882,0.5256900267571429
0.22695150104338047,-0.09669252351855451
-0.5730735574373829,0.3024818694888336
0.7070490096759448,-0.7835817390256485
-0.9983284509356853,0.026955181754050317
-0.4977075191133351,-0.5876806953537559
0.3175496595932863,-0.8309000347575595
-0.2747780289534243,-0.19121416289856463
0.5107003234984833,-0.42669864966216364
-0.5150795197488043,-0.3026267350008336
0.33910270098277673,0.8593693840884167
-0.12463290231056079,-0.9880200569238395
-0.32106833435034865,-0.028357160404976822
-0.07218349703883287,-0.9195941133596643
0.5988733404846065,0.38935528451568935
0.16656360716424312,-0.5056995518553205
0.9958958714400648,-0.8111053527568042
0.9736834702654706,-0.04733214544719999
0.39374124283849254,0.2349679184459641
0.8586677956740827,-0.322652042586431
-0.8355934608628908,-0.5783789191079274
-0.7907631818649974,-0.19564180541721332
0.6870589556615418,0.19113681743088917
-0.0008231139148309197,0.39697054672508125
0.11190780360234553,0.6785147808689511
0.8146510745301163,0.8412653551278582
0.2587969743724925,-0.4247170175385553
-0.6556271075957647,0.7444183225609957
0.9335171096409154,-0.7691954823896401
-0.2424057926412937,-0.18812099426558304
-0.6635161248773687,-0.17553591482904696
-0.6760202375636308,0.6060991560854665
0.5024637844620461,0.4571784734524731
0.1418536393705272,-0.001907537534990844
-0.15173267256991707,0.2057756009065017
0.5356251839602741,0.8983919529099458
0.24374588432797917,-0.8258263888710453
-0.34287376313395956,-0.0944700806723906
0.44621563069207437,0.42451014256798647
0.2330368269584695,-0.8377808292868616
0.19280363153746283,0.5823825273580678
0.47306943273030444,0.5774104162762916
-0.41375970640025317,0.29801161217113803
-0.19855629923953866,-0.6983413176959172
-0.47013239962167663,-0.17844670375018845
-0.29591567321720125,0.07189379369739357
-0.6973342657014656,-0.803725254233377
0.8261366784084256,-0.4656958641278748
-0.48793850354084367,0.784713671656353
0.18468872894605592,0.031282059301865894
-0.8540797546661776,0.8210473494768074
-0.2201954522185694,0.5468525525418266
-0.6037341537512826,-0.9748256564155169
0.5242130559052638,-0.928672344971526
0.0678672546072061,0.5869417118565023
-0.27696286094922673,0.1127439399774246
0.5768346265237865,0.3694219073811784
0.24104940081554682,-0.45488709896180657
0.01556225522488508,-0.6432440670306645
0.1364584607680952,0.1802170416942257
0.2547668164185162,0.2622777132047571
-0.46573016426444824,0.3094272311231612
0.3268048318741277,0.00895763343439615
-0.03140648186438533,0.2172124883364066
0.12246027469198717,-0.8144511739516076
-0.8962950331770467,0.625240447755157
0.6207922537430914,-0.6620883065002394
0.9609781724255704,-0.5817186271264554
-0.3983399625381936,-0.6456815731804826
0.5784026182929658,0.5821941379816016
0.01996162695196757,0.45892186183188977
0.6050474120878278,-0.20997797057764211
-0.6903644765406083,0.23154254078181413
0.2984513204381256,-0.2675870018283997
0.5272109723881413,0.9489154076918949
-0.6763101367219053,0.3963298693183548
0.6004190223068271,0.30758960310997874
0.15180242147112688,0.48655283398040194
0.8927598512671415,-0.35131437158198286
0.7115200424809471,0.26049805157644657
0.5006300898616354,0.4092942075731647
0.9896093278481206,0.8922802701256112
0.7241307063813931,-0.28360140872667383
0.4225141700280888,-0.06605104067200007
0.5267221314084749,0.2686098885956758
-0.8919295243644074,0.8505171329462347
-0.20305234379666426,-0.9605690536649709
0.058732011566139164,-0.48704255583840084
-0.09847618245633294,-0.06806394052863296
0.09427056792132604,-0.47294554320748605
-0.394982308388816,0.4465196970080174
-0.31144591758750506,-0.9305962392866591
0.47584991114676045,0.22263579122601196
0.5453210674637159,0.7679407303622701
0.7858373358474628,0.3674472115489611
0.32080665093608607,-0.11371738083005511
0.5454289624958149,0.5102678832059706
-0.37736409317381847,0.31860184840214156
0.6496366578225616,0.4013019791878776
-0.09298351302872687,0.4591361867983115
-0.9164907414820587,0.6012604583618362
0.3757157900241439,-0.6741932880778414
-0.48027426074659285,-0.48913115382144445
0.5277157748174366,0.9573878690021966
-0.02169316958812506,-0.37034260607384084
0.9785600858021426,-0.8960269174053372
0.4902073360018788,-0.6043449459441128
0.7441422962451143,0.4343731908886941
-0.602828309725886,-0.7805298135912808
-0.8977121486849431,0.06182111608199636
0.8080273314237363,-0.9316622287464515
0.556605183877771,-0.039979177166221236
-0.5245973253937322,0.5187919534099941
0.5376195681834977,-0.5638306841510954
-0.9829280819046271,0.9641544544994454
-0.5942528399687632,0.7315638776697153
0.582074942826017,-0.7196893324029314
-0.2663850173187321,0.5979379858117677
-0.11318404020187289,0.08366929456340766
0.31642218675354106,0.5194598652762425
-0.3758574815469562,-0.7165619826472018
-0.8817908965789909,0.29325162397305293
0.24268230307767125,-0.0856120822947466
-0.9987598098497485,0.7060219498621871
0.5667926098448153,0.27330652165909
-0.14615097564744084,0.6021671630636665
0.18439946232911097,0.7451520428797953
0.9616552927174169,-0.8691970969720542
-0.7280939500843542,0.8607704356577344
-0.7377529568352426,0.2673747376818325
0.7991186138036614,-0.8445898084841481
0.28879706932842186,-0.9099779377723105
-0.4886224425572683,-0.6937671225078172
0.20729769220520122,0.9099189032814408
-0.568449293156774,-0.17603020169975525
-0.8291047617058838,-0.696489528059373
-0.7590383260933578,0.5149632390250964
0.9016931886155188,0.09727265745402791
-0.5820180360454195,0.8917295805155687
0.6885388776351706,0.22704011554622494
0.42737467446238764,-0.42626042458137947
-0.2436999622247389,-0.8077166334923962
0.17761736741918854,-0.6640443467346206
0.6070086595717574,-0.24443246928494267
-0.48611506637222757,0.30977176074583146
-0.8202131866563058,-0.06326195237316612
-0.3642816252066299,0.46598601660628214
-0.7559666677706853,-0.2998678608250416
0.7725336065320423,-0.1023556675586117
0.7833176211640385,-0.21589333781893316
0.6480329655344494,0.28017849667020167
0.8160933795651291,0.1946793446182864
-0.31702302743567823,-0.20203895993398868
-0.2692685047341947,-0.2205533152062833
0.7726710825230259,0.6357489369059741
0.7756521349262293,-0.435537640234559
-0.8367856008334895,0.1917915479611374
-0.86232290047541,-0.6260646147832316
0.14592136034161984,-0.19291710131421702
0.840057897760474,0.12304467994014723
-0.6769050824570404,0.08765682281542375
-0.9674520527225998,-0.15898586101427914
0.02219310298482835,-0.5744766967566655
0.07725122470374957,0.8085912135465598
0.3601981604121749,0.35720880872465455
0.11418171068909544,0.6784099532617731
0.18916550563404866,0.46219693876110535
-0.3988527165159168,0.37873198028424127
-0.08138434996310995,0.3465910502567222
0.5231620443420211,0.3218372634810709
-0.539194232929421,0.6527772240178502
-0.1504497862795493,0.15406451396851684
-0.5692627916639317,0.6184162928001378
-0.5838995743504098,-0.5512287123852677
-0.7771308152897565,0.3095760227690991
-0.05343153161530556,-0.16964858659963356
0.018956275300748615,0.04350377610880973
-0.06674461687019417,0.9076281832183055
0.3200824116905645,0.6337720079003801
0.25547180502516564,-0.5169909249269893
-0.09017978939596838,0.4281946499640208
-0.7561932611038369,0.5308250036333542
-0.361740543190203,-0.1141512948187915
0.9369165813245242,-0.6642030496656572
-0.12895863593706136,-0.15548176153810433
-0.07835707375362833,-0.03967609191796262
0.037540608342223836,-0.7210148936202556
0.6199555109209796,0.37800007304279326
-0.3424367402937285,-0.7255751609246288
0.8113775945977177,0.48150189743647287
-0.9216454811973409,-0.8562419387358902
0.8467592569016493,0.22360662376257223
0.19866062630742487,0.47523894125101385
-0.7984957605876883,0.11145097621164535
0.2583928653680465,-0.7357940330497355
0.556994930804551,-0.4408327739239346
0.5054775830222198,-0.09856869182762362
-0.9818158054643833,-0.7087807249726987
0.8017682188967425,0.7265142040300816
-0.5017389517031199,-0.07321652701463233
-0.2148330786734154,0.13353783401819097
-0.29743455265496754,-0.7283069364782384
0.6900341387800475,-0.43134449252708995
0.6944160662112273,0.15569055604920834
0.7845336544435502,-0.6236659729548726
-0.17270361949385404,0.7257926390281906
-0.8799943572392661,-0.4971274846881597
0.7123925434708591,-0.7013940863500931
-0.789569087011692,-0.4796857297937662
0.23642461697113726,-0.8012301837157221
-0.6967698493356986,0.07140177464044606
-0.44765326582532117,0.2250830397835275
0.030831875224121452,0.3820471823285836
-0.9321385408086924,-0.15591767098190812
-0.812264334372264,-0.7443284383994537
-0.5054936873396865,0.7581395810293579
-0.24719039737510595,-0.9166643757391184
-0.5738508988446194,0.9133782198711051
-0.5334729281491337,-0.7745297571706307
0.9152917878658962,0.023415590578648393
-0.683130975269475,-0.5505067183775199
-0.4861211507150687,0.34866694707881285
0.7144241572470549,0.8445432638221402
-0.4841180553082829,-0.9986642870250502
-0.9420893269414583,0.7880849653775046
-0.5114939525209945,-0.7268000335853451
-0.7373086331118048,-0.1694375803835222
0.19104144639815446,0.5874183057805045
0.6094099830108151,-0.6136251897909741
-0.36076802402090036,0.5286226772638185
0.6248829660914046,0.5328340750039189
0.26036820620079215,0.23063352005321436
-0.05675421243207657,-0.16364850590619473
0.010559643538665675,0.6376672399702941
0.025424606438611663,-0.8868579274565429
0.9227595770295831,-0.13547046099619076
-0.474827988574684,-0.042308801969757726
