0.13227176950087727,-0.9260898585275474
0.9619136737573164,0.11362414214595873
0.43124303758606364,0.24827741766917422
0.46915432779274857,-0.5619067961659832
0.7145532952370295,-0.9971898517116304
0.7818525608208386,-0.13689575196861892
0.8974489269225052,-0.253316612358943
0.2492015915180017,-0.5211497066600799
0.22064162124341813,0.5043209820846157
-0.6443455298121881,-0.7570546277589989
-0.028009208942098462,-0.579321780511687
-0.29583756973186426,0.7080534951864852
0.6765442193253521,-0.7944951736877037
0.5733426400153812,-0.5087025971640833
0.8277560199561276,-0.0882605921351125
-0.7958244104974606,-0.8985245307798331
-0.41498273922408346,0.2601948713235003
-0.8005842333738913,-0.36018450359404963
0.6346064310623272,-0.920154108380026
0.13932722206095005,-0.1708270284242277
-0.4574465458747441,-0.04132304333398262
0.3062649827524373,-0.3326535131581956
0.9136102597042104,-0.8049026919672226
-0.1756539311634564,-0.5985744813387928
0.9911945680559904,-0.2126882556209222
0.534489545397393,-0.09742115220462577
-0.6957488701457157,-0.022651080235446708
-0.4328249803566788,-0.22064186171412814
-0.3225143518304048,0.1342494972324355
0.883180856631153,-0.30129694359598913
0.5287349761013156,-0.4834220172409167
0.02785628601947221,-0.15502334186133426
-0.3429805439124656,0.06736169246476864
-0.43994550003663924,-0.9149497563263975
-0.17104266441285731,-0.7856336412213778
-0.424310518408636,-0.46142330826019373
0.4834940287069758,0.9651646323935152
-0.35544524076254147,0.6644067236141897
0.15561093043727192,-0.09722792872855246
0.6127841328651673,0.7599295880690802
-0.6184385671852142,0.6266061391253162
-0.4208144418482589,-0.7584386773258736
0.8951632392655358,0.6890848032890227
-0.9039673076005406,-0.7344238961754994
-0.20187559617579787,0.6723479115743738
0.3822111110119495,0.8926420201456429
-0.9409628291257393,-0.7982580513064368
0.5215442857170365,0.9727160801385828
0.10379210765947278,0.6263452891592449
0.7624195399954439,-0.11483077664643515
0.5679624888895936,-0.13020577195160854
0.5366106532161135,-0.921289551902988
0.14397107377978213,-0.18592909296487825
0.9274221700410032,-0.32308101625912733
0.6200596532495151,0.6996790842901388
-0.39572267202355715,-0.6540441560678139
-0.6603300454311172,0.9605351541200378
-0.8141892180630419,0.528346342411578
0.9997819377037183,-0.056041348600749386
0.3185489340771812,0.7867441414940848
-0.1611888864299369,-0.8925278706473658
0.6380894045439605,0.3683911219626925
-0.20916552408413724,-0.4334426126399762
-0.2633423915422004,0.36959627154025676
-0.2760163544063601,0.4980975341279692
0.3918201724291126,-0.05294108852097734
0.6674189803032082,-0.6588609301474182
-0.25554144364528786,-0.6241896836136449
0.9844884063268793,0.10247929336695494
-0.8431419698225306,0.6609755482773527
0.14253003350129956,-0.477915439836466
0.49636958916571206,-0.41368560698956225
-0.8058744452428832,-0.8895804070434292
-0.9920607384236984,-0.42954817065128936
0.35476009761922134,0.6422875102039107
-0.6489211928400733,0.8461773355325248
-0.39575431423364416,0.33552936757169816
-0.24664807930031585,0.20375107253852232
-0.21756189945708426,-0.26717321775014136
-0.1143128859941398,0.5147544607176671
-0.26505283160572435,0.24433176536869472
0.27780949975235125,-0.6844399833279042
-0.9602361678524864,0.7577675688854293
-0.5526059771722791,0.15155714072840643
0.5220771002608751,0.8934481500033045
-0.4769035275496414,-0.6969008741695701
-0.9121330855175311,-0.1516879386851142
-0.7202208601362594,-0.36360794271433616
0.9223830625597345,-0.3658488380061873
0.42827132326972017,0.06211548313827309
0.6896748286547538,0.7358813872987566
0.07071604362662165,0.1842523321794518
0.5019924980064105,-0.38115728625513734
-0.7154858880876767,-0.01057197822957967
0.4975021361909908,0.4392574639792226
-0.3773356743280445,-0.36243386818780543
0.04475880885786432,-0.8176146572973795
0.7839925097313221,0.6715101715144456
0.5524618629871045,-0.8301480124938949
-0.2162105054503365,-0.3646084344116449
-0.35447470341754395,0.5910648827141132
0.23262144243656602,-0.3155850318777773
-0.5047552498680241,-0.5903187217116537
-0.24246544454074015,-0.13234613417970809
0.5362810771463027,0.33376877345976097
0.9293066917005086,-0.703231802878703
0.7356063409374245,0.2617974315389413
0.7378073523809183,0.4860373167061538
0.4071697556322178,0.3257233567243163
-0.6472497376992725,-0.3881415758951243
0.22301263310710695,-0.26559474584875176
0.3470418572159535,-0.38797628419392227
-0.5097443662142864,0.24237579233178974
-0.8442025502654495,0.5298323528172086
0.38447025822303593,0.6020578241612913
0.13486716850799763,-0.9910038695077599
0.9895701589659227,-0.828045717193606
0.21918663702226837,-0.04444489171381116
-0.04885201374316228,-0.9393986689042899
0.5046061943847604,0.7608129426147865
-0.8854754052303893,-0.2691767553288267
-0.40430682147122843,-0.3554575279164942
-0.702380861099559,-0.6029892695859598
-0.5379216512415388,-0.8419431357783542
-0.5292343361857614,-0.17623000912445286
0.34914983839320435,-0.09550112677165323
-0.6093788794412012,-0.16531656326106847
0.9352657786207765,-0.7652183034950453
-0.800014991746927,0.8193761351238593
-0.7851012915951634,-0.011622264791752324
-0.8502810181361276,0.1232988590938453
-0.7324194106406532,-0.419952770055402
0.9744541770841615,-0.9452235881101032
0.8110379318520584,-0.9147416999326528
-0.9696519612452512,-0.7751251418201606
0.44885788820371353,0.28786419799078566
-0.7412939132370502,0.9845133665101151
-0.41910860669964145,-0.533553778656302
-0.047941092558011045,-0.020109106539822674
-0.6896205577615833,-0.5536630469297383
0.03473802473397569,-0.8194704379169815
-0.14540929201816577,0.5007070747211315
-0.7988909805806661,0.357952064498843
0.7483913544387208,0.3568035300472283
0.49247297286439595,-0.45918316201780285
-0.5904704525225242,0.9232257757668836
0.09903962429898039,-0.8196481451035971
-0.8220778757728795,-0.5974101081881249
-0.5942116814533358,0.26722660727122727
-0.6716770276143575,-0.4727260175799497
0.9868494977947739,0.8866762099301322
-0.5532328872998147,-0.49726534356551455
-0.43162639594503793,-0.13324355867005755
-0.07426007453857286,-0.5416023262218883
-0.43438384271103647,-0.39435643414461974
0.9766394534177458,0.862321547835416
-0.655707207588442,0.4668557055688145
0.32312119234752745,0.7348672062043942
-0.4638706921823341,0.007122518095249442
-0.1688184347715358,0.9629372205268061
0.5459707408628296,0.5012916267168006
-0.11937853004601306,0.7172037080187519
-0.03138298485243829,0.6880652115649526
-0.9096732203050253,-0.10248477733617967
0.7936450170187126,-0.18655142008291437
0.42230358104998866,0.013108978464805965
-0.48901605619375355,0.0794050092498495
0.7487875833976236,-0.6040345414837518
0.8642527961085484,0.8005585194730716
-0.5007129496326366,0.8378747560103226
-0.44862771611528096,-0.6678106547203964
-0.918910181524806,-0.9471535182616497
-0.6169344680273499,0.8683760743138831
0.2574117883781255,0.07953646189925312
-0.661777469764991,-0.5469587348148932
-0.48958006618534733,0.005102665781341553
-0.07019548939507003,-0.7172239947351715
-0.8589377091124157,-0.9030501236464186
0.6788496537009838,-0.5137189288127704
-0.08421183035055191,0.8892620193024567
-0.8386684917418679,0.9554924734003307
-0.2739063736664773,0.07197041095433088
0.17798602361660798,-0.8810228880605582
-0.8499666994515349,0.8162781778771233
-0.19478925360489763,0.5402911247817617
0.17356144497281112,0.22301256701101058
0.9101281959487848,-0.8057933324939957
0.5559970576637874,-0.292261646945152
0.9652645267486775,0.34292495023199465
0.14102461315527526,-0.15015545780651696
0.8786471281520811,-0.4663501672993915
-0.19377481870321311,-0.8559160236111087
0.8007529171932497,0.025310352475341746
-0.04755438893266639,0.06529426800746863
0.1375227509609751,-0.4046816649771967
-0.42297267911353886,-0.8852672379923585
-0.9603580948005364,0.7972107803073809
0.6778663328433165,0.5807959687874684
-0.07267745489425614,-0.4698907644471948
0.537364492532119,0.1885116623499976
0.26934719737524415,-0.8474063966468521
0.17481980970679523,0.3651978508282765
-0.220533306531419,0.7431917357225426
-0.41105235275923224,-0.11901687131276595
0.06457428776738317,0.51762079786284
0.8678067361177104,-0.740251065509939
-0.5815012745869095,0.39565870808784487
-0.01829774390841954,0.32873651954128524
0.0490307801203127,0.3075023589196375
-0.5894928170387626,-0.29266975336459744
0.2317123145164237,-0.606279337905
0.6946323160416545,-0.22353146570254734
0.569640305999273,-0.7392379472498158
0.49615704788061454,-0.586158582965159
0.17741107898483732,-0.4239883177993973
0.3509317417379141,-0.2785550156633543
-0.21118042100644296,0.4032137656896073
-0.7250205902921407,0.26730271459882493
0.010244456280422254,-0.9114390290496255
-0.27732883293964483,-0.03314198431024118
0.4774800927751599,0.4067793449330077
0.5033398726541394,-0.378549224959406
0.12310253065523735,0.12624995286619423
0.6575301506350006,-0.7430239823662936
-0.21247531264064,0.8807044933794568
-0.03201073727020787,-0.027690987559856328
-0.34750598568078406,-0.028771498391567008
-0.637981103616371,-0.5313537687300511
-0.020066533962864952,0.7466287591875325
-0.40558679965488476,-0.37598942901993904
-0.6306799219259027,0.20327340495559332
0.39701960754875354,-0.2945278029785767
0.9576595362261842,-0.33686133615297953
-0.417877204918764,0.9541922362718482
0.5061150912046859,-0.7236550292566635
-0.15493293001152786,-0.15457660121786176
0.6810626839597518,-0.8135953270355467
0.4331573029099387,0.7087115074544454
-0.8170681687891084,0.8158926877936361
0.604156740133704,-0.24983129442540797
-0.5072308684833111,-0.6353409138707589
-0.7273085002565187,0.9515237443829072
-0.7308168204242032,0.1415196152784588
0.22912897035431867,0.20713497606695164
0.8656599110331722,-0.40779059158506104
-0.032654001662997034,-0.8762657371888183
-0.7500068999067901,0.3021657490442322
-0.5309298033314698,-0.7415393552198464
-0.3547010969850335,-0.2416931984656081
-0.8810001002919821,-0.06831254470037829
-0.6409641166927829,-0.7129104714471433
0.4196643054565463,-0.8352030979075571
-0.37582723324836476,-0.7628798933625798
-0.6729489528119845,-0.29279950873659577
-0.5924437682517762,-0.7653191787658555
-0.7242443423039779,-0.5140082145402665
